%YAML 1.1
%TAG !u! tag:unity3d.com,2011:
--- !u!1001 &100100000
Prefab:
  m_ObjectHideFlags: 1
  serializedVersion: 2
  m_Modification:
    m_TransformParent: {fileID: 0}
    m_Modifications: []
    m_RemovedComponents: []
  m_ParentPrefab: {fileID: 0}
  m_RootGameObject: {fileID: 1586725200298936}
  m_IsPrefabParent: 1
--- !u!1 &1352605287317636
GameObject:
  m_ObjectHideFlags: 0
  m_PrefabParentObject: {fileID: 0}
  m_PrefabInternal: {fileID: 100100000}
  serializedVersion: 5
  m_Component:
  - component: {fileID: 4638793630621594}
  - component: {fileID: 8195094281267247872}
  - component: {fileID: 3664157346180425506}
  m_Layer: 31
  m_Name: Layer1
  m_TagString: Untagged
  m_Icon: {fileID: 0}
  m_NavMeshLayer: 0
  m_StaticEditorFlags: 0
  m_IsActive: 1
--- !u!1 &1586725200298936
GameObject:
  m_ObjectHideFlags: 0
  m_PrefabParentObject: {fileID: 0}
  m_PrefabInternal: {fileID: 100100000}
  serializedVersion: 5
  m_Component:
  - component: {fileID: 4751539463759308}
  - component: {fileID: 2569400268367390640}
  m_Layer: 31
  m_Name: Rock Palette
  m_TagString: Untagged
  m_Icon: {fileID: 0}
  m_NavMeshLayer: 0
  m_StaticEditorFlags: 0
  m_IsActive: 1
--- !u!4 &4638793630621594
Transform:
  m_ObjectHideFlags: 1
  m_PrefabParentObject: {fileID: 0}
  m_PrefabInternal: {fileID: 100100000}
  m_GameObject: {fileID: 1352605287317636}
  m_LocalRotation: {x: -0, y: -0, z: -0, w: 1}
  m_LocalPosition: {x: 0, y: 0, z: 0}
  m_LocalScale: {x: 1, y: 1, z: 1}
  m_Children: []
  m_Father: {fileID: 4751539463759308}
  m_RootOrder: 0
  m_LocalEulerAnglesHint: {x: 0, y: 0, z: 0}
--- !u!4 &4751539463759308
Transform:
  m_ObjectHideFlags: 1
  m_PrefabParentObject: {fileID: 0}
  m_PrefabInternal: {fileID: 100100000}
  m_GameObject: {fileID: 1586725200298936}
  m_LocalRotation: {x: 0, y: 0, z: 0, w: 1}
  m_LocalPosition: {x: 0, y: 0, z: 0}
  m_LocalScale: {x: 1, y: 1, z: 1}
  m_Children:
  - {fileID: 4638793630621594}
  m_Father: {fileID: 0}
  m_RootOrder: 0
  m_LocalEulerAnglesHint: {x: 0, y: 0, z: 0}
--- !u!114 &114519996678117310
MonoBehaviour:
  m_ObjectHideFlags: 0
  m_PrefabParentObject: {fileID: 0}
  m_PrefabInternal: {fileID: 0}
  m_GameObject: {fileID: 0}
  m_Enabled: 1
  m_EditorHideFlags: 1
  m_Script: {fileID: 12395, guid: 0000000000000000e000000000000000, type: 0}
  m_Name: Palette Settings
  m_EditorClassIdentifier: 
  cellSizing: 0
--- !u!156049354 &2569400268367390640
Grid:
  m_ObjectHideFlags: 1
  m_PrefabParentObject: {fileID: 0}
  m_PrefabInternal: {fileID: 100100000}
  m_GameObject: {fileID: 1586725200298936}
  m_Enabled: 1
  m_CellSize: {x: 1, y: 1, z: 0}
  m_CellGap: {x: 0, y: 0, z: 0}
  m_CellLayout: 0
  m_CellSwizzle: 0
--- !u!483693784 &3664157346180425506
TilemapRenderer:
  m_ObjectHideFlags: 1
  m_PrefabParentObject: {fileID: 0}
  m_PrefabInternal: {fileID: 100100000}
  m_GameObject: {fileID: 1352605287317636}
  m_Enabled: 0
  m_CastShadows: 0
  m_ReceiveShadows: 0
  m_DynamicOccludee: 0
  m_MotionVectors: 1
  m_LightProbeUsage: 0
  m_ReflectionProbeUsage: 0
  m_Materials:
  - {fileID: 10754, guid: 0000000000000000f000000000000000, type: 0}
  m_StaticBatchInfo:
    firstSubMesh: 0
    subMeshCount: 0
  m_StaticBatchRoot: {fileID: 0}
  m_ProbeAnchor: {fileID: 0}
  m_LightProbeVolumeOverride: {fileID: 0}
  m_ScaleInLightmap: 1
  m_PreserveUVs: 0
  m_IgnoreNormalsForChartDetection: 0
  m_ImportantGI: 0
  m_StitchLightmapSeams: 0
  m_SelectedEditorRenderState: 0
  m_MinimumChartSize: 4
  m_AutoUVMaxDistance: 0.5
  m_AutoUVMaxAngle: 89
  m_LightmapParameters: {fileID: 0}
  m_SortingLayerID: 0
  m_SortingLayer: 0
  m_SortingOrder: 0
  m_ChunkSize: {x: 32, y: 32, z: 32}
  m_MaxChunkCount: 16
  m_MaxFrameAge: 16
  m_SortOrder: 0
  m_MaskInteraction: 0
--- !u!1839735485 &8195094281267247872
Tilemap:
  m_ObjectHideFlags: 1
  m_PrefabParentObject: {fileID: 0}
  m_PrefabInternal: {fileID: 100100000}
  m_GameObject: {fileID: 1352605287317636}
  m_Enabled: 1
  m_Tiles:
  - first: {x: -2, y: -7, z: 0}
    second:
      m_TileIndex: 105
      m_TileSpriteIndex: 105
      m_TileMatrixIndex: 0
      m_TileColorIndex: 0
      m_ObjectToInstantiate: {fileID: 0}
      m_TileFlags: 1
      m_ColliderType: 2
  - first: {x: -1, y: -7, z: 0}
    second:
      m_TileIndex: 106
      m_TileSpriteIndex: 106
      m_TileMatrixIndex: 0
      m_TileColorIndex: 0
      m_ObjectToInstantiate: {fileID: 0}
      m_TileFlags: 1
      m_ColliderType: 2
  - first: {x: 0, y: -7, z: 0}
    second:
      m_TileIndex: 107
      m_TileSpriteIndex: 107
      m_TileMatrixIndex: 0
      m_TileColorIndex: 0
      m_ObjectToInstantiate: {fileID: 0}
      m_TileFlags: 1
      m_ColliderType: 2
  - first: {x: 1, y: -7, z: 0}
    second:
      m_TileIndex: 108
      m_TileSpriteIndex: 108
      m_TileMatrixIndex: 0
      m_TileColorIndex: 0
      m_ObjectToInstantiate: {fileID: 0}
      m_TileFlags: 1
      m_ColliderType: 2
  - first: {x: 2, y: -7, z: 0}
    second:
      m_TileIndex: 109
      m_TileSpriteIndex: 109
      m_TileMatrixIndex: 0
      m_TileColorIndex: 0
      m_ObjectToInstantiate: {fileID: 0}
      m_TileFlags: 1
      m_ColliderType: 2
  - first: {x: 3, y: -7, z: 0}
    second:
      m_TileIndex: 110
      m_TileSpriteIndex: 110
      m_TileMatrixIndex: 0
      m_TileColorIndex: 0
      m_ObjectToInstantiate: {fileID: 0}
      m_TileFlags: 1
      m_ColliderType: 2
  - first: {x: 4, y: -7, z: 0}
    second:
      m_TileIndex: 111
      m_TileSpriteIndex: 111
      m_TileMatrixIndex: 0
      m_TileColorIndex: 0
      m_ObjectToInstantiate: {fileID: 0}
      m_TileFlags: 1
      m_ColliderType: 2
  - first: {x: 5, y: -7, z: 0}
    second:
      m_TileIndex: 112
      m_TileSpriteIndex: 112
      m_TileMatrixIndex: 0
      m_TileColorIndex: 0
      m_ObjectToInstantiate: {fileID: 0}
      m_TileFlags: 1
      m_ColliderType: 2
  - first: {x: 6, y: -7, z: 0}
    second:
      m_TileIndex: 113
      m_TileSpriteIndex: 0
      m_TileMatrixIndex: 0
      m_TileColorIndex: 0
      m_ObjectToInstantiate: {fileID: 0}
      m_TileFlags: 2
      m_ColliderType: 2
  - first: {x: -2, y: -6, z: 0}
    second:
      m_TileIndex: 96
      m_TileSpriteIndex: 96
      m_TileMatrixIndex: 0
      m_TileColorIndex: 0
      m_ObjectToInstantiate: {fileID: 0}
      m_TileFlags: 1
      m_ColliderType: 2
  - first: {x: -1, y: -6, z: 0}
    second:
      m_TileIndex: 97
      m_TileSpriteIndex: 97
      m_TileMatrixIndex: 0
      m_TileColorIndex: 0
      m_ObjectToInstantiate: {fileID: 0}
      m_TileFlags: 1
      m_ColliderType: 2
  - first: {x: 0, y: -6, z: 0}
    second:
      m_TileIndex: 98
      m_TileSpriteIndex: 98
      m_TileMatrixIndex: 0
      m_TileColorIndex: 0
      m_ObjectToInstantiate: {fileID: 0}
      m_TileFlags: 1
      m_ColliderType: 2
  - first: {x: 1, y: -6, z: 0}
    second:
      m_TileIndex: 99
      m_TileSpriteIndex: 99
      m_TileMatrixIndex: 0
      m_TileColorIndex: 0
      m_ObjectToInstantiate: {fileID: 0}
      m_TileFlags: 1
      m_ColliderType: 2
  - first: {x: 2, y: -6, z: 0}
    second:
      m_TileIndex: 100
      m_TileSpriteIndex: 100
      m_TileMatrixIndex: 0
      m_TileColorIndex: 0
      m_ObjectToInstantiate: {fileID: 0}
      m_TileFlags: 1
      m_ColliderType: 2
  - first: {x: 3, y: -6, z: 0}
    second:
      m_TileIndex: 101
      m_TileSpriteIndex: 101
      m_TileMatrixIndex: 0
      m_TileColorIndex: 0
      m_ObjectToInstantiate: {fileID: 0}
      m_TileFlags: 1
      m_ColliderType: 2
  - first: {x: 4, y: -6, z: 0}
    second:
      m_TileIndex: 102
      m_TileSpriteIndex: 102
      m_TileMatrixIndex: 0
      m_TileColorIndex: 0
      m_ObjectToInstantiate: {fileID: 0}
      m_TileFlags: 1
      m_ColliderType: 2
  - first: {x: 5, y: -6, z: 0}
    second:
      m_TileIndex: 103
      m_TileSpriteIndex: 103
      m_TileMatrixIndex: 0
      m_TileColorIndex: 0
      m_ObjectToInstantiate: {fileID: 0}
      m_TileFlags: 1
      m_ColliderType: 2
  - first: {x: 6, y: -6, z: 0}
    second:
      m_TileIndex: 104
      m_TileSpriteIndex: 104
      m_TileMatrixIndex: 0
      m_TileColorIndex: 0
      m_ObjectToInstantiate: {fileID: 0}
      m_TileFlags: 1
      m_ColliderType: 2
  - first: {x: -2, y: -5, z: 0}
    second:
      m_TileIndex: 86
      m_TileSpriteIndex: 86
      m_TileMatrixIndex: 0
      m_TileColorIndex: 0
      m_ObjectToInstantiate: {fileID: 0}
      m_TileFlags: 1
      m_ColliderType: 2
  - first: {x: -1, y: -5, z: 0}
    second:
      m_TileIndex: 87
      m_TileSpriteIndex: 87
      m_TileMatrixIndex: 0
      m_TileColorIndex: 0
      m_ObjectToInstantiate: {fileID: 0}
      m_TileFlags: 1
      m_ColliderType: 2
  - first: {x: 0, y: -5, z: 0}
    second:
      m_TileIndex: 88
      m_TileSpriteIndex: 88
      m_TileMatrixIndex: 0
      m_TileColorIndex: 0
      m_ObjectToInstantiate: {fileID: 0}
      m_TileFlags: 1
      m_ColliderType: 2
  - first: {x: 1, y: -5, z: 0}
    second:
      m_TileIndex: 89
      m_TileSpriteIndex: 89
      m_TileMatrixIndex: 0
      m_TileColorIndex: 0
      m_ObjectToInstantiate: {fileID: 0}
      m_TileFlags: 1
      m_ColliderType: 2
  - first: {x: 2, y: -5, z: 0}
    second:
      m_TileIndex: 90
      m_TileSpriteIndex: 90
      m_TileMatrixIndex: 0
      m_TileColorIndex: 0
      m_ObjectToInstantiate: {fileID: 0}
      m_TileFlags: 1
      m_ColliderType: 2
  - first: {x: 3, y: -5, z: 0}
    second:
      m_TileIndex: 91
      m_TileSpriteIndex: 91
      m_TileMatrixIndex: 0
      m_TileColorIndex: 0
      m_ObjectToInstantiate: {fileID: 0}
      m_TileFlags: 1
      m_ColliderType: 2
  - first: {x: 4, y: -5, z: 0}
    second:
      m_TileIndex: 92
      m_TileSpriteIndex: 92
      m_TileMatrixIndex: 0
      m_TileColorIndex: 0
      m_ObjectToInstantiate: {fileID: 0}
      m_TileFlags: 1
      m_ColliderType: 2
  - first: {x: 5, y: -5, z: 0}
    second:
      m_TileIndex: 93
      m_TileSpriteIndex: 93
      m_TileMatrixIndex: 0
      m_TileColorIndex: 0
      m_ObjectToInstantiate: {fileID: 0}
      m_TileFlags: 1
      m_ColliderType: 2
  - first: {x: 6, y: -5, z: 0}
    second:
      m_TileIndex: 94
      m_TileSpriteIndex: 94
      m_TileMatrixIndex: 0
      m_TileColorIndex: 0
      m_ObjectToInstantiate: {fileID: 0}
      m_TileFlags: 1
      m_ColliderType: 2
  - first: {x: 7, y: -5, z: 0}
    second:
      m_TileIndex: 95
      m_TileSpriteIndex: 95
      m_TileMatrixIndex: 0
      m_TileColorIndex: 0
      m_ObjectToInstantiate: {fileID: 0}
      m_TileFlags: 1
      m_ColliderType: 2
  - first: {x: -2, y: -4, z: 0}
    second:
      m_TileIndex: 75
      m_TileSpriteIndex: 75
      m_TileMatrixIndex: 0
      m_TileColorIndex: 0
      m_ObjectToInstantiate: {fileID: 0}
      m_TileFlags: 1
      m_ColliderType: 2
  - first: {x: -1, y: -4, z: 0}
    second:
      m_TileIndex: 76
      m_TileSpriteIndex: 76
      m_TileMatrixIndex: 0
      m_TileColorIndex: 0
      m_ObjectToInstantiate: {fileID: 0}
      m_TileFlags: 1
      m_ColliderType: 2
  - first: {x: 0, y: -4, z: 0}
    second:
      m_TileIndex: 77
      m_TileSpriteIndex: 77
      m_TileMatrixIndex: 0
      m_TileColorIndex: 0
      m_ObjectToInstantiate: {fileID: 0}
      m_TileFlags: 1
      m_ColliderType: 2
  - first: {x: 1, y: -4, z: 0}
    second:
      m_TileIndex: 78
      m_TileSpriteIndex: 78
      m_TileMatrixIndex: 0
      m_TileColorIndex: 0
      m_ObjectToInstantiate: {fileID: 0}
      m_TileFlags: 1
      m_ColliderType: 2
  - first: {x: 2, y: -4, z: 0}
    second:
      m_TileIndex: 79
      m_TileSpriteIndex: 79
      m_TileMatrixIndex: 0
      m_TileColorIndex: 0
      m_ObjectToInstantiate: {fileID: 0}
      m_TileFlags: 1
      m_ColliderType: 2
  - first: {x: 3, y: -4, z: 0}
    second:
      m_TileIndex: 80
      m_TileSpriteIndex: 80
      m_TileMatrixIndex: 0
      m_TileColorIndex: 0
      m_ObjectToInstantiate: {fileID: 0}
      m_TileFlags: 1
      m_ColliderType: 2
  - first: {x: 4, y: -4, z: 0}
    second:
      m_TileIndex: 81
      m_TileSpriteIndex: 81
      m_TileMatrixIndex: 0
      m_TileColorIndex: 0
      m_ObjectToInstantiate: {fileID: 0}
      m_TileFlags: 1
      m_ColliderType: 2
  - first: {x: 5, y: -4, z: 0}
    second:
      m_TileIndex: 82
      m_TileSpriteIndex: 82
      m_TileMatrixIndex: 0
      m_TileColorIndex: 0
      m_ObjectToInstantiate: {fileID: 0}
      m_TileFlags: 1
      m_ColliderType: 2
  - first: {x: 6, y: -4, z: 0}
    second:
      m_TileIndex: 83
      m_TileSpriteIndex: 83
      m_TileMatrixIndex: 0
      m_TileColorIndex: 0
      m_ObjectToInstantiate: {fileID: 0}
      m_TileFlags: 1
      m_ColliderType: 2
  - first: {x: 7, y: -4, z: 0}
    second:
      m_TileIndex: 84
      m_TileSpriteIndex: 84
      m_TileMatrixIndex: 0
      m_TileColorIndex: 0
      m_ObjectToInstantiate: {fileID: 0}
      m_TileFlags: 1
      m_ColliderType: 2
  - first: {x: 8, y: -4, z: 0}
    second:
      m_TileIndex: 85
      m_TileSpriteIndex: 85
      m_TileMatrixIndex: 0
      m_TileColorIndex: 0
      m_ObjectToInstantiate: {fileID: 0}
      m_TileFlags: 1
      m_ColliderType: 2
  - first: {x: -2, y: -3, z: 0}
    second:
      m_TileIndex: 64
      m_TileSpriteIndex: 64
      m_TileMatrixIndex: 0
      m_TileColorIndex: 0
      m_ObjectToInstantiate: {fileID: 0}
      m_TileFlags: 1
      m_ColliderType: 2
  - first: {x: -1, y: -3, z: 0}
    second:
      m_TileIndex: 65
      m_TileSpriteIndex: 65
      m_TileMatrixIndex: 0
      m_TileColorIndex: 0
      m_ObjectToInstantiate: {fileID: 0}
      m_TileFlags: 1
      m_ColliderType: 2
  - first: {x: 0, y: -3, z: 0}
    second:
      m_TileIndex: 66
      m_TileSpriteIndex: 66
      m_TileMatrixIndex: 0
      m_TileColorIndex: 0
      m_ObjectToInstantiate: {fileID: 0}
      m_TileFlags: 1
      m_ColliderType: 2
  - first: {x: 1, y: -3, z: 0}
    second:
      m_TileIndex: 67
      m_TileSpriteIndex: 67
      m_TileMatrixIndex: 0
      m_TileColorIndex: 0
      m_ObjectToInstantiate: {fileID: 0}
      m_TileFlags: 1
      m_ColliderType: 2
  - first: {x: 2, y: -3, z: 0}
    second:
      m_TileIndex: 68
      m_TileSpriteIndex: 68
      m_TileMatrixIndex: 0
      m_TileColorIndex: 0
      m_ObjectToInstantiate: {fileID: 0}
      m_TileFlags: 1
      m_ColliderType: 2
  - first: {x: 3, y: -3, z: 0}
    second:
      m_TileIndex: 69
      m_TileSpriteIndex: 69
      m_TileMatrixIndex: 0
      m_TileColorIndex: 0
      m_ObjectToInstantiate: {fileID: 0}
      m_TileFlags: 1
      m_ColliderType: 2
  - first: {x: 4, y: -3, z: 0}
    second:
      m_TileIndex: 70
      m_TileSpriteIndex: 70
      m_TileMatrixIndex: 0
      m_TileColorIndex: 0
      m_ObjectToInstantiate: {fileID: 0}
      m_TileFlags: 1
      m_ColliderType: 2
  - first: {x: 5, y: -3, z: 0}
    second:
      m_TileIndex: 71
      m_TileSpriteIndex: 71
      m_TileMatrixIndex: 0
      m_TileColorIndex: 0
      m_ObjectToInstantiate: {fileID: 0}
      m_TileFlags: 1
      m_ColliderType: 2
  - first: {x: 6, y: -3, z: 0}
    second:
      m_TileIndex: 72
      m_TileSpriteIndex: 72
      m_TileMatrixIndex: 0
      m_TileColorIndex: 0
      m_ObjectToInstantiate: {fileID: 0}
      m_TileFlags: 1
      m_ColliderType: 2
  - first: {x: 7, y: -3, z: 0}
    second:
      m_TileIndex: 73
      m_TileSpriteIndex: 73
      m_TileMatrixIndex: 0
      m_TileColorIndex: 0
      m_ObjectToInstantiate: {fileID: 0}
      m_TileFlags: 1
      m_ColliderType: 2
  - first: {x: 8, y: -3, z: 0}
    second:
      m_TileIndex: 74
      m_TileSpriteIndex: 74
      m_TileMatrixIndex: 0
      m_TileColorIndex: 0
      m_ObjectToInstantiate: {fileID: 0}
      m_TileFlags: 1
      m_ColliderType: 2
  - first: {x: -2, y: -2, z: 0}
    second:
      m_TileIndex: 54
      m_TileSpriteIndex: 54
      m_TileMatrixIndex: 0
      m_TileColorIndex: 0
      m_ObjectToInstantiate: {fileID: 0}
      m_TileFlags: 1
      m_ColliderType: 2
  - first: {x: -1, y: -2, z: 0}
    second:
      m_TileIndex: 55
      m_TileSpriteIndex: 55
      m_TileMatrixIndex: 0
      m_TileColorIndex: 0
      m_ObjectToInstantiate: {fileID: 0}
      m_TileFlags: 1
      m_ColliderType: 2
  - first: {x: 0, y: -2, z: 0}
    second:
      m_TileIndex: 56
      m_TileSpriteIndex: 56
      m_TileMatrixIndex: 0
      m_TileColorIndex: 0
      m_ObjectToInstantiate: {fileID: 0}
      m_TileFlags: 1
      m_ColliderType: 2
  - first: {x: 1, y: -2, z: 0}
    second:
      m_TileIndex: 57
      m_TileSpriteIndex: 57
      m_TileMatrixIndex: 0
      m_TileColorIndex: 0
      m_ObjectToInstantiate: {fileID: 0}
      m_TileFlags: 1
      m_ColliderType: 2
  - first: {x: 2, y: -2, z: 0}
    second:
      m_TileIndex: 58
      m_TileSpriteIndex: 58
      m_TileMatrixIndex: 0
      m_TileColorIndex: 0
      m_ObjectToInstantiate: {fileID: 0}
      m_TileFlags: 1
      m_ColliderType: 2
  - first: {x: 3, y: -2, z: 0}
    second:
      m_TileIndex: 59
      m_TileSpriteIndex: 59
      m_TileMatrixIndex: 0
      m_TileColorIndex: 0
      m_ObjectToInstantiate: {fileID: 0}
      m_TileFlags: 1
      m_ColliderType: 2
  - first: {x: 4, y: -2, z: 0}
    second:
      m_TileIndex: 60
      m_TileSpriteIndex: 60
      m_TileMatrixIndex: 0
      m_TileColorIndex: 0
      m_ObjectToInstantiate: {fileID: 0}
      m_TileFlags: 1
      m_ColliderType: 2
  - first: {x: 5, y: -2, z: 0}
    second:
      m_TileIndex: 61
      m_TileSpriteIndex: 61
      m_TileMatrixIndex: 0
      m_TileColorIndex: 0
      m_ObjectToInstantiate: {fileID: 0}
      m_TileFlags: 1
      m_ColliderType: 2
  - first: {x: 6, y: -2, z: 0}
    second:
      m_TileIndex: 62
      m_TileSpriteIndex: 62
      m_TileMatrixIndex: 0
      m_TileColorIndex: 0
      m_ObjectToInstantiate: {fileID: 0}
      m_TileFlags: 1
      m_ColliderType: 2
  - first: {x: 7, y: -2, z: 0}
    second:
      m_TileIndex: 63
      m_TileSpriteIndex: 63
      m_TileMatrixIndex: 0
      m_TileColorIndex: 0
      m_ObjectToInstantiate: {fileID: 0}
      m_TileFlags: 1
      m_ColliderType: 2
  - first: {x: -2, y: -1, z: 0}
    second:
      m_TileIndex: 44
      m_TileSpriteIndex: 44
      m_TileMatrixIndex: 0
      m_TileColorIndex: 0
      m_ObjectToInstantiate: {fileID: 0}
      m_TileFlags: 1
      m_ColliderType: 2
  - first: {x: -1, y: -1, z: 0}
    second:
      m_TileIndex: 45
      m_TileSpriteIndex: 45
      m_TileMatrixIndex: 0
      m_TileColorIndex: 0
      m_ObjectToInstantiate: {fileID: 0}
      m_TileFlags: 1
      m_ColliderType: 2
  - first: {x: 0, y: -1, z: 0}
    second:
      m_TileIndex: 46
      m_TileSpriteIndex: 46
      m_TileMatrixIndex: 0
      m_TileColorIndex: 0
      m_ObjectToInstantiate: {fileID: 0}
      m_TileFlags: 1
      m_ColliderType: 2
  - first: {x: 1, y: -1, z: 0}
    second:
      m_TileIndex: 47
      m_TileSpriteIndex: 47
      m_TileMatrixIndex: 0
      m_TileColorIndex: 0
      m_ObjectToInstantiate: {fileID: 0}
      m_TileFlags: 1
      m_ColliderType: 2
  - first: {x: 2, y: -1, z: 0}
    second:
      m_TileIndex: 48
      m_TileSpriteIndex: 48
      m_TileMatrixIndex: 0
      m_TileColorIndex: 0
      m_ObjectToInstantiate: {fileID: 0}
      m_TileFlags: 1
      m_ColliderType: 2
  - first: {x: 3, y: -1, z: 0}
    second:
      m_TileIndex: 49
      m_TileSpriteIndex: 49
      m_TileMatrixIndex: 0
      m_TileColorIndex: 0
      m_ObjectToInstantiate: {fileID: 0}
      m_TileFlags: 1
      m_ColliderType: 2
  - first: {x: 4, y: -1, z: 0}
    second:
      m_TileIndex: 50
      m_TileSpriteIndex: 50
      m_TileMatrixIndex: 0
      m_TileColorIndex: 0
      m_ObjectToInstantiate: {fileID: 0}
      m_TileFlags: 1
      m_ColliderType: 2
  - first: {x: 5, y: -1, z: 0}
    second:
      m_TileIndex: 51
      m_TileSpriteIndex: 51
      m_TileMatrixIndex: 0
      m_TileColorIndex: 0
      m_ObjectToInstantiate: {fileID: 0}
      m_TileFlags: 1
      m_ColliderType: 2
  - first: {x: 6, y: -1, z: 0}
    second:
      m_TileIndex: 52
      m_TileSpriteIndex: 52
      m_TileMatrixIndex: 0
      m_TileColorIndex: 0
      m_ObjectToInstantiate: {fileID: 0}
      m_TileFlags: 1
      m_ColliderType: 2
  - first: {x: 7, y: -1, z: 0}
    second:
      m_TileIndex: 53
      m_TileSpriteIndex: 53
      m_TileMatrixIndex: 0
      m_TileColorIndex: 0
      m_ObjectToInstantiate: {fileID: 0}
      m_TileFlags: 1
      m_ColliderType: 2
  - first: {x: -2, y: 0, z: 0}
    second:
      m_TileIndex: 33
      m_TileSpriteIndex: 33
      m_TileMatrixIndex: 0
      m_TileColorIndex: 0
      m_ObjectToInstantiate: {fileID: 0}
      m_TileFlags: 1
      m_ColliderType: 2
  - first: {x: -1, y: 0, z: 0}
    second:
      m_TileIndex: 34
      m_TileSpriteIndex: 34
      m_TileMatrixIndex: 0
      m_TileColorIndex: 0
      m_ObjectToInstantiate: {fileID: 0}
      m_TileFlags: 1
      m_ColliderType: 2
  - first: {x: 0, y: 0, z: 0}
    second:
      m_TileIndex: 35
      m_TileSpriteIndex: 35
      m_TileMatrixIndex: 0
      m_TileColorIndex: 0
      m_ObjectToInstantiate: {fileID: 0}
      m_TileFlags: 1
      m_ColliderType: 2
  - first: {x: 1, y: 0, z: 0}
    second:
      m_TileIndex: 36
      m_TileSpriteIndex: 36
      m_TileMatrixIndex: 0
      m_TileColorIndex: 0
      m_ObjectToInstantiate: {fileID: 0}
      m_TileFlags: 1
      m_ColliderType: 2
  - first: {x: 2, y: 0, z: 0}
    second:
      m_TileIndex: 37
      m_TileSpriteIndex: 37
      m_TileMatrixIndex: 0
      m_TileColorIndex: 0
      m_ObjectToInstantiate: {fileID: 0}
      m_TileFlags: 1
      m_ColliderType: 2
  - first: {x: 3, y: 0, z: 0}
    second:
      m_TileIndex: 38
      m_TileSpriteIndex: 38
      m_TileMatrixIndex: 0
      m_TileColorIndex: 0
      m_ObjectToInstantiate: {fileID: 0}
      m_TileFlags: 1
      m_ColliderType: 2
  - first: {x: 4, y: 0, z: 0}
    second:
      m_TileIndex: 39
      m_TileSpriteIndex: 39
      m_TileMatrixIndex: 0
      m_TileColorIndex: 0
      m_ObjectToInstantiate: {fileID: 0}
      m_TileFlags: 1
      m_ColliderType: 2
  - first: {x: 5, y: 0, z: 0}
    second:
      m_TileIndex: 40
      m_TileSpriteIndex: 40
      m_TileMatrixIndex: 0
      m_TileColorIndex: 0
      m_ObjectToInstantiate: {fileID: 0}
      m_TileFlags: 1
      m_ColliderType: 2
  - first: {x: 6, y: 0, z: 0}
    second:
      m_TileIndex: 41
      m_TileSpriteIndex: 41
      m_TileMatrixIndex: 0
      m_TileColorIndex: 0
      m_ObjectToInstantiate: {fileID: 0}
      m_TileFlags: 1
      m_ColliderType: 2
  - first: {x: 7, y: 0, z: 0}
    second:
      m_TileIndex: 42
      m_TileSpriteIndex: 42
      m_TileMatrixIndex: 0
      m_TileColorIndex: 0
      m_ObjectToInstantiate: {fileID: 0}
      m_TileFlags: 1
      m_ColliderType: 2
  - first: {x: 8, y: 0, z: 0}
    second:
      m_TileIndex: 43
      m_TileSpriteIndex: 43
      m_TileMatrixIndex: 0
      m_TileColorIndex: 0
      m_ObjectToInstantiate: {fileID: 0}
      m_TileFlags: 1
      m_ColliderType: 2
  - first: {x: -2, y: 1, z: 0}
    second:
      m_TileIndex: 22
      m_TileSpriteIndex: 22
      m_TileMatrixIndex: 0
      m_TileColorIndex: 0
      m_ObjectToInstantiate: {fileID: 0}
      m_TileFlags: 1
      m_ColliderType: 2
  - first: {x: -1, y: 1, z: 0}
    second:
      m_TileIndex: 23
      m_TileSpriteIndex: 23
      m_TileMatrixIndex: 0
      m_TileColorIndex: 0
      m_ObjectToInstantiate: {fileID: 0}
      m_TileFlags: 1
      m_ColliderType: 2
  - first: {x: 0, y: 1, z: 0}
    second:
      m_TileIndex: 24
      m_TileSpriteIndex: 24
      m_TileMatrixIndex: 0
      m_TileColorIndex: 0
      m_ObjectToInstantiate: {fileID: 0}
      m_TileFlags: 1
      m_ColliderType: 2
  - first: {x: 1, y: 1, z: 0}
    second:
      m_TileIndex: 25
      m_TileSpriteIndex: 25
      m_TileMatrixIndex: 0
      m_TileColorIndex: 0
      m_ObjectToInstantiate: {fileID: 0}
      m_TileFlags: 1
      m_ColliderType: 2
  - first: {x: 2, y: 1, z: 0}
    second:
      m_TileIndex: 26
      m_TileSpriteIndex: 26
      m_TileMatrixIndex: 0
      m_TileColorIndex: 0
      m_ObjectToInstantiate: {fileID: 0}
      m_TileFlags: 1
      m_ColliderType: 2
  - first: {x: 3, y: 1, z: 0}
    second:
      m_TileIndex: 27
      m_TileSpriteIndex: 27
      m_TileMatrixIndex: 0
      m_TileColorIndex: 0
      m_ObjectToInstantiate: {fileID: 0}
      m_TileFlags: 1
      m_ColliderType: 2
  - first: {x: 4, y: 1, z: 0}
    second:
      m_TileIndex: 28
      m_TileSpriteIndex: 28
      m_TileMatrixIndex: 0
      m_TileColorIndex: 0
      m_ObjectToInstantiate: {fileID: 0}
      m_TileFlags: 1
      m_ColliderType: 2
  - first: {x: 5, y: 1, z: 0}
    second:
      m_TileIndex: 29
      m_TileSpriteIndex: 29
      m_TileMatrixIndex: 0
      m_TileColorIndex: 0
      m_ObjectToInstantiate: {fileID: 0}
      m_TileFlags: 1
      m_ColliderType: 2
  - first: {x: 6, y: 1, z: 0}
    second:
      m_TileIndex: 30
      m_TileSpriteIndex: 30
      m_TileMatrixIndex: 0
      m_TileColorIndex: 0
      m_ObjectToInstantiate: {fileID: 0}
      m_TileFlags: 1
      m_ColliderType: 2
  - first: {x: 7, y: 1, z: 0}
    second:
      m_TileIndex: 31
      m_TileSpriteIndex: 31
      m_TileMatrixIndex: 0
      m_TileColorIndex: 0
      m_ObjectToInstantiate: {fileID: 0}
      m_TileFlags: 1
      m_ColliderType: 2
  - first: {x: 8, y: 1, z: 0}
    second:
      m_TileIndex: 32
      m_TileSpriteIndex: 32
      m_TileMatrixIndex: 0
      m_TileColorIndex: 0
      m_ObjectToInstantiate: {fileID: 0}
      m_TileFlags: 1
      m_ColliderType: 2
  - first: {x: -2, y: 2, z: 0}
    second:
      m_TileIndex: 11
      m_TileSpriteIndex: 11
      m_TileMatrixIndex: 0
      m_TileColorIndex: 0
      m_ObjectToInstantiate: {fileID: 0}
      m_TileFlags: 1
      m_ColliderType: 2
  - first: {x: -1, y: 2, z: 0}
    second:
      m_TileIndex: 12
      m_TileSpriteIndex: 12
      m_TileMatrixIndex: 0
      m_TileColorIndex: 0
      m_ObjectToInstantiate: {fileID: 0}
      m_TileFlags: 1
      m_ColliderType: 2
  - first: {x: 0, y: 2, z: 0}
    second:
      m_TileIndex: 13
      m_TileSpriteIndex: 13
      m_TileMatrixIndex: 0
      m_TileColorIndex: 0
      m_ObjectToInstantiate: {fileID: 0}
      m_TileFlags: 1
      m_ColliderType: 2
  - first: {x: 1, y: 2, z: 0}
    second:
      m_TileIndex: 14
      m_TileSpriteIndex: 14
      m_TileMatrixIndex: 0
      m_TileColorIndex: 0
      m_ObjectToInstantiate: {fileID: 0}
      m_TileFlags: 1
      m_ColliderType: 2
  - first: {x: 2, y: 2, z: 0}
    second:
      m_TileIndex: 15
      m_TileSpriteIndex: 15
      m_TileMatrixIndex: 0
      m_TileColorIndex: 0
      m_ObjectToInstantiate: {fileID: 0}
      m_TileFlags: 1
      m_ColliderType: 2
  - first: {x: 3, y: 2, z: 0}
    second:
      m_TileIndex: 16
      m_TileSpriteIndex: 16
      m_TileMatrixIndex: 0
      m_TileColorIndex: 0
      m_ObjectToInstantiate: {fileID: 0}
      m_TileFlags: 1
      m_ColliderType: 2
  - first: {x: 4, y: 2, z: 0}
    second:
      m_TileIndex: 17
      m_TileSpriteIndex: 17
      m_TileMatrixIndex: 0
      m_TileColorIndex: 0
      m_ObjectToInstantiate: {fileID: 0}
      m_TileFlags: 1
      m_ColliderType: 2
  - first: {x: 5, y: 2, z: 0}
    second:
      m_TileIndex: 18
      m_TileSpriteIndex: 18
      m_TileMatrixIndex: 0
      m_TileColorIndex: 0
      m_ObjectToInstantiate: {fileID: 0}
      m_TileFlags: 1
      m_ColliderType: 2
  - first: {x: 6, y: 2, z: 0}
    second:
      m_TileIndex: 19
      m_TileSpriteIndex: 19
      m_TileMatrixIndex: 0
      m_TileColorIndex: 0
      m_ObjectToInstantiate: {fileID: 0}
      m_TileFlags: 1
      m_ColliderType: 2
  - first: {x: 7, y: 2, z: 0}
    second:
      m_TileIndex: 20
      m_TileSpriteIndex: 20
      m_TileMatrixIndex: 0
      m_TileColorIndex: 0
      m_ObjectToInstantiate: {fileID: 0}
      m_TileFlags: 1
      m_ColliderType: 2
  - first: {x: 8, y: 2, z: 0}
    second:
      m_TileIndex: 21
      m_TileSpriteIndex: 21
      m_TileMatrixIndex: 0
      m_TileColorIndex: 0
      m_ObjectToInstantiate: {fileID: 0}
      m_TileFlags: 1
      m_ColliderType: 2
  - first: {x: -2, y: 3, z: 0}
    second:
      m_TileIndex: 0
      m_TileSpriteIndex: 0
      m_TileMatrixIndex: 0
      m_TileColorIndex: 0
      m_ObjectToInstantiate: {fileID: 0}
      m_TileFlags: 1
      m_ColliderType: 2
  - first: {x: -1, y: 3, z: 0}
    second:
      m_TileIndex: 1
      m_TileSpriteIndex: 1
      m_TileMatrixIndex: 0
      m_TileColorIndex: 0
      m_ObjectToInstantiate: {fileID: 0}
      m_TileFlags: 1
      m_ColliderType: 2
  - first: {x: 0, y: 3, z: 0}
    second:
      m_TileIndex: 2
      m_TileSpriteIndex: 2
      m_TileMatrixIndex: 0
      m_TileColorIndex: 0
      m_ObjectToInstantiate: {fileID: 0}
      m_TileFlags: 1
      m_ColliderType: 2
  - first: {x: 1, y: 3, z: 0}
    second:
      m_TileIndex: 3
      m_TileSpriteIndex: 3
      m_TileMatrixIndex: 0
      m_TileColorIndex: 0
      m_ObjectToInstantiate: {fileID: 0}
      m_TileFlags: 1
      m_ColliderType: 2
  - first: {x: 2, y: 3, z: 0}
    second:
      m_TileIndex: 4
      m_TileSpriteIndex: 4
      m_TileMatrixIndex: 0
      m_TileColorIndex: 0
      m_ObjectToInstantiate: {fileID: 0}
      m_TileFlags: 1
      m_ColliderType: 2
  - first: {x: 3, y: 3, z: 0}
    second:
      m_TileIndex: 5
      m_TileSpriteIndex: 5
      m_TileMatrixIndex: 0
      m_TileColorIndex: 0
      m_ObjectToInstantiate: {fileID: 0}
      m_TileFlags: 1
      m_ColliderType: 2
  - first: {x: 4, y: 3, z: 0}
    second:
      m_TileIndex: 6
      m_TileSpriteIndex: 6
      m_TileMatrixIndex: 0
      m_TileColorIndex: 0
      m_ObjectToInstantiate: {fileID: 0}
      m_TileFlags: 1
      m_ColliderType: 2
  - first: {x: 5, y: 3, z: 0}
    second:
      m_TileIndex: 7
      m_TileSpriteIndex: 7
      m_TileMatrixIndex: 0
      m_TileColorIndex: 0
      m_ObjectToInstantiate: {fileID: 0}
      m_TileFlags: 1
      m_ColliderType: 2
  - first: {x: 6, y: 3, z: 0}
    second:
      m_TileIndex: 8
      m_TileSpriteIndex: 8
      m_TileMatrixIndex: 0
      m_TileColorIndex: 0
      m_ObjectToInstantiate: {fileID: 0}
      m_TileFlags: 1
      m_ColliderType: 2
  - first: {x: 7, y: 3, z: 0}
    second:
      m_TileIndex: 9
      m_TileSpriteIndex: 9
      m_TileMatrixIndex: 0
      m_TileColorIndex: 0
      m_ObjectToInstantiate: {fileID: 0}
      m_TileFlags: 1
      m_ColliderType: 2
  - first: {x: 8, y: 3, z: 0}
    second:
      m_TileIndex: 10
      m_TileSpriteIndex: 10
      m_TileMatrixIndex: 0
      m_TileColorIndex: 0
      m_ObjectToInstantiate: {fileID: 0}
      m_TileFlags: 1
      m_ColliderType: 2
  m_AnimatedTiles: {}
  m_TileAssetArray:
  - m_RefCount: 1
    m_Data: {fileID: 11400000, guid: 9ebe2b150c704294393a4abb3d277a7c, type: 2}
  - m_RefCount: 1
    m_Data: {fileID: 11400000, guid: 6a425022d4ba3f74ca9e9074e8cc09b7, type: 2}
  - m_RefCount: 1
    m_Data: {fileID: 11400000, guid: 2a9915a55c7ed1141b9a2edf721f3f70, type: 2}
  - m_RefCount: 1
    m_Data: {fileID: 11400000, guid: 50ceb8b2c25c82246ad31b5be39b4c68, type: 2}
  - m_RefCount: 1
    m_Data: {fileID: 11400000, guid: da9853517084c0246a906894b27434a5, type: 2}
  - m_RefCount: 1
    m_Data: {fileID: 11400000, guid: 7fe041553bb99aa459651d2b72dcdd82, type: 2}
  - m_RefCount: 1
    m_Data: {fileID: 11400000, guid: 8863a02b15393f24abdf1bff01073f80, type: 2}
  - m_RefCount: 1
    m_Data: {fileID: 11400000, guid: e9f2af036aad480409a07481f5b4aa41, type: 2}
  - m_RefCount: 1
    m_Data: {fileID: 11400000, guid: 42671efcba5787940beadc75644a4177, type: 2}
  - m_RefCount: 1
    m_Data: {fileID: 11400000, guid: 564674a7b253d7b42a3cc7f920771563, type: 2}
  - m_RefCount: 1
    m_Data: {fileID: 11400000, guid: 9157f98f98e852643b2992557b49f50b, type: 2}
  - m_RefCount: 1
    m_Data: {fileID: 11400000, guid: b8cc45d9b3da330468c1bdb508f67b66, type: 2}
  - m_RefCount: 1
    m_Data: {fileID: 11400000, guid: b3dfc7d26b162b04b993a7a667f6f158, type: 2}
  - m_RefCount: 1
    m_Data: {fileID: 11400000, guid: 732be5708e90b9742ac942bf4e83cbde, type: 2}
  - m_RefCount: 1
    m_Data: {fileID: 11400000, guid: d85f5ce1cbe3ccf4b912a550701efa4b, type: 2}
  - m_RefCount: 1
    m_Data: {fileID: 11400000, guid: 5132aecc7f0f37d48859f176c2721af3, type: 2}
  - m_RefCount: 1
    m_Data: {fileID: 11400000, guid: 1d12a7b27c56f74479de93d7626e4996, type: 2}
  - m_RefCount: 1
    m_Data: {fileID: 11400000, guid: 866933f55a462f4448b480d861c24e9a, type: 2}
  - m_RefCount: 1
    m_Data: {fileID: 11400000, guid: 40c057cd8bcbd094690ee0a64dd9d70f, type: 2}
  - m_RefCount: 1
    m_Data: {fileID: 11400000, guid: 15472027c159ed44e807cd13b77b270d, type: 2}
  - m_RefCount: 1
    m_Data: {fileID: 11400000, guid: a0959056decc6ad4eac0a7657faed801, type: 2}
  - m_RefCount: 1
    m_Data: {fileID: 11400000, guid: 571c4bccaf4fb4a44afaedd5d8d01f3a, type: 2}
  - m_RefCount: 1
    m_Data: {fileID: 11400000, guid: 77512c676c320de4eb145e085ea516cf, type: 2}
  - m_RefCount: 1
    m_Data: {fileID: 11400000, guid: 0af09edc2102ee646b9b341923667d18, type: 2}
  - m_RefCount: 1
    m_Data: {fileID: 11400000, guid: 04813b5f1aba4a142a8de74f54038402, type: 2}
  - m_RefCount: 1
    m_Data: {fileID: 11400000, guid: 733a139dc2cda10469401c4736a47fd3, type: 2}
  - m_RefCount: 1
    m_Data: {fileID: 11400000, guid: 6944902ae4d7df84984a52a781f16d04, type: 2}
  - m_RefCount: 1
    m_Data: {fileID: 11400000, guid: 5fc8314ca0d261849b8461a9ad5a8748, type: 2}
  - m_RefCount: 1
    m_Data: {fileID: 11400000, guid: d5b081bb407692b4fb926940ef4f7368, type: 2}
  - m_RefCount: 1
    m_Data: {fileID: 11400000, guid: 51688a73da5e4f649989791d83f3c61b, type: 2}
  - m_RefCount: 1
    m_Data: {fileID: 11400000, guid: fa66d02597f4ace459a717d725c8e8a6, type: 2}
  - m_RefCount: 1
    m_Data: {fileID: 11400000, guid: f596007a94ff20b4ba393cb4de296437, type: 2}
  - m_RefCount: 1
    m_Data: {fileID: 11400000, guid: 446df2682426f914888777706ddc4288, type: 2}
  - m_RefCount: 1
    m_Data: {fileID: 11400000, guid: d6f7ef70fd4b8cd4eb4b92e9ed7c3431, type: 2}
  - m_RefCount: 1
    m_Data: {fileID: 11400000, guid: feac823d1db774f4fbb474c870606a43, type: 2}
  - m_RefCount: 1
    m_Data: {fileID: 11400000, guid: ade7343e22586dd478c8e629282b4056, type: 2}
  - m_RefCount: 1
    m_Data: {fileID: 11400000, guid: ab8ea532ca5080a44bb01dd799c37196, type: 2}
  - m_RefCount: 1
    m_Data: {fileID: 11400000, guid: f256608a787ed804ba569c78b5874522, type: 2}
  - m_RefCount: 1
    m_Data: {fileID: 11400000, guid: 142ea298cd9e2ef488cecba01c29d9b8, type: 2}
  - m_RefCount: 1
    m_Data: {fileID: 11400000, guid: 40a14a33c1d9f5344b24fd9b06be6b73, type: 2}
  - m_RefCount: 1
    m_Data: {fileID: 11400000, guid: c63129bd781bf644b82935d8cdc10037, type: 2}
  - m_RefCount: 1
    m_Data: {fileID: 11400000, guid: e0a8da81702b9d84184c375e08d02d08, type: 2}
  - m_RefCount: 1
    m_Data: {fileID: 11400000, guid: cd2eb210ffb7390439bd7dcba2dd00f8, type: 2}
  - m_RefCount: 1
    m_Data: {fileID: 11400000, guid: 901029618f38f6a4b9541803214a911d, type: 2}
  - m_RefCount: 1
    m_Data: {fileID: 11400000, guid: 23448ac3c5f59cc47ac748174ae9020e, type: 2}
  - m_RefCount: 1
    m_Data: {fileID: 11400000, guid: 37a528529df82034db6a25cfa1edca23, type: 2}
  - m_RefCount: 1
    m_Data: {fileID: 11400000, guid: d48487740a7ef434e99eae7c005791e7, type: 2}
  - m_RefCount: 1
    m_Data: {fileID: 11400000, guid: a6034a19550bd324e991ead3bcc9f0a1, type: 2}
  - m_RefCount: 1
    m_Data: {fileID: 11400000, guid: b65f10fb0f58542499a4dd8a7933e64d, type: 2}
  - m_RefCount: 1
    m_Data: {fileID: 11400000, guid: 505703bfc9d4dd34ab8bd8b1932d613d, type: 2}
  - m_RefCount: 1
    m_Data: {fileID: 11400000, guid: 6ab1aded072a2ad4bb43fa8e61c50ae1, type: 2}
  - m_RefCount: 1
    m_Data: {fileID: 11400000, guid: b0dea2f056dcd904f90309568b37a4d8, type: 2}
  - m_RefCount: 1
    m_Data: {fileID: 11400000, guid: 2f205a5abd3c81d4faab95b9f124b0f4, type: 2}
  - m_RefCount: 1
    m_Data: {fileID: 11400000, guid: 6b7fd5f7ef1158c42879749e65acb991, type: 2}
  - m_RefCount: 1
    m_Data: {fileID: 11400000, guid: c3bad87c6aa78754381f215d61ace6eb, type: 2}
  - m_RefCount: 1
    m_Data: {fileID: 11400000, guid: 39038b0406c23b247bd1a51cf4ab396f, type: 2}
  - m_RefCount: 1
    m_Data: {fileID: 11400000, guid: 18f264be7ba975042a025f26200ee95f, type: 2}
  - m_RefCount: 1
    m_Data: {fileID: 11400000, guid: 093972da49d32264f8c308bc5e6399b0, type: 2}
  - m_RefCount: 1
    m_Data: {fileID: 11400000, guid: 7968714650bd8bb48849a29834070865, type: 2}
  - m_RefCount: 1
    m_Data: {fileID: 11400000, guid: 5ddb4c2fc3f0a1f4391b882ce2d0cbd4, type: 2}
  - m_RefCount: 1
    m_Data: {fileID: 11400000, guid: 71bf0490e6c51ea43831a46e7941ee8f, type: 2}
  - m_RefCount: 1
    m_Data: {fileID: 11400000, guid: 22c1b13436078754289eabc041ea639b, type: 2}
  - m_RefCount: 1
    m_Data: {fileID: 11400000, guid: 5433a50003eeaca4bb393ac4c748f2c6, type: 2}
  - m_RefCount: 1
    m_Data: {fileID: 11400000, guid: 1d44eb7dfd74bf74ba3a8ebad7bf2664, type: 2}
  - m_RefCount: 1
    m_Data: {fileID: 11400000, guid: f60127ae4537c614c96cd5a01bc88d01, type: 2}
  - m_RefCount: 1
    m_Data: {fileID: 11400000, guid: 90768d4138ec1384faf820d1dd402301, type: 2}
  - m_RefCount: 1
    m_Data: {fileID: 11400000, guid: 10c566db8d1f5c94c8d8b157fe046877, type: 2}
  - m_RefCount: 1
    m_Data: {fileID: 11400000, guid: c4c01438f1ab27241b1c55d0ed5a7692, type: 2}
  - m_RefCount: 1
    m_Data: {fileID: 11400000, guid: 38a85d1f01c99f842a54f2ea6d1370da, type: 2}
  - m_RefCount: 1
    m_Data: {fileID: 11400000, guid: 64b2442ca56ca344292e6ef51b2a54bf, type: 2}
  - m_RefCount: 1
    m_Data: {fileID: 11400000, guid: e7cb71452f8da2a4db5f84bc66792ab5, type: 2}
  - m_RefCount: 1
    m_Data: {fileID: 11400000, guid: 3b6c9c7e32905b44fb91722ec0cdc68a, type: 2}
  - m_RefCount: 1
    m_Data: {fileID: 11400000, guid: 1b40617230638f84a922bb8afe33f64a, type: 2}
  - m_RefCount: 1
    m_Data: {fileID: 11400000, guid: a82850808c027224082af16d7d4c04ed, type: 2}
  - m_RefCount: 1
    m_Data: {fileID: 11400000, guid: 405ec73685d4a9448a51e934b024b580, type: 2}
  - m_RefCount: 1
    m_Data: {fileID: 11400000, guid: 1e3a628dfd1ac1a4cb324d2b8477189b, type: 2}
  - m_RefCount: 1
    m_Data: {fileID: 11400000, guid: dc7ca5677bf99014ca0e71c4d6ddfa09, type: 2}
  - m_RefCount: 1
    m_Data: {fileID: 11400000, guid: 0d0bbb0a839dc244a866014fa5db41ef, type: 2}
  - m_RefCount: 1
    m_Data: {fileID: 11400000, guid: f274420967682c746acf7872b994b5a1, type: 2}
  - m_RefCount: 1
    m_Data: {fileID: 11400000, guid: f3e8d7e4bc865044d8581d18fd28fc84, type: 2}
  - m_RefCount: 1
    m_Data: {fileID: 11400000, guid: 9fdcbfaf0b2ae294f876adf48e312272, type: 2}
  - m_RefCount: 1
    m_Data: {fileID: 11400000, guid: af1beb1da11ed854eaab3e5024c60aec, type: 2}
  - m_RefCount: 1
    m_Data: {fileID: 11400000, guid: 6bb74f391f6076444a1c33218159c48b, type: 2}
  - m_RefCount: 1
    m_Data: {fileID: 11400000, guid: 1e7fcc85a2219d7419a032d295497c3a, type: 2}
  - m_RefCount: 1
    m_Data: {fileID: 11400000, guid: 47f09087f85542744b93835e47ae4766, type: 2}
  - m_RefCount: 1
    m_Data: {fileID: 11400000, guid: 3c3d7618cbc71ce4ea96de7c36d3f2fd, type: 2}
  - m_RefCount: 1
    m_Data: {fileID: 11400000, guid: b29ad6ada3109594a90d06dca6f22541, type: 2}
  - m_RefCount: 1
    m_Data: {fileID: 11400000, guid: bf43c6dadd28c4e4d8938183aea8e2a4, type: 2}
  - m_RefCount: 1
    m_Data: {fileID: 11400000, guid: b2e33f2023731904f853a039f7dd66a6, type: 2}
  - m_RefCount: 1
    m_Data: {fileID: 11400000, guid: 2842b3d5fccb4e24baefd2144957425b, type: 2}
  - m_RefCount: 1
    m_Data: {fileID: 11400000, guid: d10dd428a5c33134b8989b4efa8080b0, type: 2}
  - m_RefCount: 1
    m_Data: {fileID: 11400000, guid: 2ca433c2037cbd14fbe71237b390d164, type: 2}
  - m_RefCount: 1
    m_Data: {fileID: 11400000, guid: f87659de5b46cfe4eb99b967408df54a, type: 2}
  - m_RefCount: 1
    m_Data: {fileID: 11400000, guid: bb7ce50041ad9cc45b2c3a31896b045a, type: 2}
  - m_RefCount: 1
    m_Data: {fileID: 11400000, guid: 7575cecf7ce4a314088e8fe2fa0ad0fa, type: 2}
  - m_RefCount: 1
    m_Data: {fileID: 11400000, guid: bbeb3cc7fca61b243ad8c287bfd407d4, type: 2}
  - m_RefCount: 1
    m_Data: {fileID: 11400000, guid: cec5d6c60e5f02048bcad2b39e5416ac, type: 2}
  - m_RefCount: 1
    m_Data: {fileID: 11400000, guid: 12f6573f77e1f524e806f968e3bf008c, type: 2}
  - m_RefCount: 1
    m_Data: {fileID: 11400000, guid: dba5750495d7a104bbfffd6dfb8fb85b, type: 2}
  - m_RefCount: 1
    m_Data: {fileID: 11400000, guid: 48fce87758dc6c44080d6a22e6688f98, type: 2}
  - m_RefCount: 1
    m_Data: {fileID: 11400000, guid: 067af20ed769ab342b3daf642b619879, type: 2}
  - m_RefCount: 1
    m_Data: {fileID: 11400000, guid: 7456179c2330cf043a84bd33b937d429, type: 2}
  - m_RefCount: 1
    m_Data: {fileID: 11400000, guid: 1106074457e76774cba2c5116095123f, type: 2}
  - m_RefCount: 1
    m_Data: {fileID: 11400000, guid: 4fd71b9d47dcdf2408b6e8ca647578f5, type: 2}
  - m_RefCount: 1
    m_Data: {fileID: 11400000, guid: 0ceae4620b048b948a202870fb83078b, type: 2}
  - m_RefCount: 1
    m_Data: {fileID: 11400000, guid: 615a1413085aa154ca5819f667405f39, type: 2}
  - m_RefCount: 1
    m_Data: {fileID: 11400000, guid: 0fadee2700ad9904cbfdaecd6330aa56, type: 2}
  - m_RefCount: 1
    m_Data: {fileID: 11400000, guid: 299f735e49444e549afc0bc34b21b7f9, type: 2}
  - m_RefCount: 1
    m_Data: {fileID: 11400000, guid: b8646e93f488837479cae100f4e32abb, type: 2}
  - m_RefCount: 1
    m_Data: {fileID: 11400000, guid: 370c810231eae0d488c3098f294ffa0e, type: 2}
  - m_RefCount: 1
    m_Data: {fileID: 11400000, guid: 537326fac2032244ba4840e7628e852f, type: 2}
  - m_RefCount: 1
    m_Data: {fileID: 11400000, guid: 9939d129ef357734a93b9ac28eb5ace4, type: 2}
  - m_RefCount: 1
    m_Data: {fileID: 11400000, guid: d31aeb2e63e0c5742bd3da9dc712e107, type: 2}
  - m_RefCount: 1
    m_Data: {fileID: 11400000, guid: 43f25bd39dbfd5d4a9f4098183a27a1f, type: 2}
  m_TileSpriteArray:
  - m_RefCount: 2
    m_Data: {fileID: 21300000, guid: a3d2085406be55a479d86f5347b2fa97, type: 3}
  - m_RefCount: 1
    m_Data: {fileID: 21300002, guid: a3d2085406be55a479d86f5347b2fa97, type: 3}
  - m_RefCount: 1
    m_Data: {fileID: 21300004, guid: a3d2085406be55a479d86f5347b2fa97, type: 3}
  - m_RefCount: 1
    m_Data: {fileID: 21300006, guid: a3d2085406be55a479d86f5347b2fa97, type: 3}
  - m_RefCount: 1
    m_Data: {fileID: 21300008, guid: a3d2085406be55a479d86f5347b2fa97, type: 3}
  - m_RefCount: 1
    m_Data: {fileID: 21300010, guid: a3d2085406be55a479d86f5347b2fa97, type: 3}
  - m_RefCount: 1
    m_Data: {fileID: 21300012, guid: a3d2085406be55a479d86f5347b2fa97, type: 3}
  - m_RefCount: 1
    m_Data: {fileID: 21300014, guid: a3d2085406be55a479d86f5347b2fa97, type: 3}
  - m_RefCount: 1
    m_Data: {fileID: 21300016, guid: a3d2085406be55a479d86f5347b2fa97, type: 3}
  - m_RefCount: 1
    m_Data: {fileID: 21300018, guid: a3d2085406be55a479d86f5347b2fa97, type: 3}
  - m_RefCount: 1
    m_Data: {fileID: 21300020, guid: a3d2085406be55a479d86f5347b2fa97, type: 3}
  - m_RefCount: 1
    m_Data: {fileID: 21300022, guid: a3d2085406be55a479d86f5347b2fa97, type: 3}
  - m_RefCount: 1
    m_Data: {fileID: 21300024, guid: a3d2085406be55a479d86f5347b2fa97, type: 3}
  - m_RefCount: 1
    m_Data: {fileID: 21300026, guid: a3d2085406be55a479d86f5347b2fa97, type: 3}
  - m_RefCount: 1
    m_Data: {fileID: 21300028, guid: a3d2085406be55a479d86f5347b2fa97, type: 3}
  - m_RefCount: 1
    m_Data: {fileID: 21300030, guid: a3d2085406be55a479d86f5347b2fa97, type: 3}
  - m_RefCount: 1
    m_Data: {fileID: 21300032, guid: a3d2085406be55a479d86f5347b2fa97, type: 3}
  - m_RefCount: 1
    m_Data: {fileID: 21300034, guid: a3d2085406be55a479d86f5347b2fa97, type: 3}
  - m_RefCount: 1
    m_Data: {fileID: 21300036, guid: a3d2085406be55a479d86f5347b2fa97, type: 3}
  - m_RefCount: 1
    m_Data: {fileID: 21300038, guid: a3d2085406be55a479d86f5347b2fa97, type: 3}
  - m_RefCount: 1
    m_Data: {fileID: 21300040, guid: a3d2085406be55a479d86f5347b2fa97, type: 3}
  - m_RefCount: 1
    m_Data: {fileID: 21300042, guid: a3d2085406be55a479d86f5347b2fa97, type: 3}
  - m_RefCount: 1
    m_Data: {fileID: 21300044, guid: a3d2085406be55a479d86f5347b2fa97, type: 3}
  - m_RefCount: 1
    m_Data: {fileID: 21300046, guid: a3d2085406be55a479d86f5347b2fa97, type: 3}
  - m_RefCount: 1
    m_Data: {fileID: 21300048, guid: a3d2085406be55a479d86f5347b2fa97, type: 3}
  - m_RefCount: 1
    m_Data: {fileID: 21300050, guid: a3d2085406be55a479d86f5347b2fa97, type: 3}
  - m_RefCount: 1
    m_Data: {fileID: 21300052, guid: a3d2085406be55a479d86f5347b2fa97, type: 3}
  - m_RefCount: 1
    m_Data: {fileID: 21300054, guid: a3d2085406be55a479d86f5347b2fa97, type: 3}
  - m_RefCount: 1
    m_Data: {fileID: 21300056, guid: a3d2085406be55a479d86f5347b2fa97, type: 3}
  - m_RefCount: 1
    m_Data: {fileID: 21300058, guid: a3d2085406be55a479d86f5347b2fa97, type: 3}
  - m_RefCount: 1
    m_Data: {fileID: 21300060, guid: a3d2085406be55a479d86f5347b2fa97, type: 3}
  - m_RefCount: 1
    m_Data: {fileID: 21300062, guid: a3d2085406be55a479d86f5347b2fa97, type: 3}
  - m_RefCount: 1
    m_Data: {fileID: 21300064, guid: a3d2085406be55a479d86f5347b2fa97, type: 3}
  - m_RefCount: 1
    m_Data: {fileID: 21300066, guid: a3d2085406be55a479d86f5347b2fa97, type: 3}
  - m_RefCount: 1
    m_Data: {fileID: 21300068, guid: a3d2085406be55a479d86f5347b2fa97, type: 3}
  - m_RefCount: 1
    m_Data: {fileID: 21300070, guid: a3d2085406be55a479d86f5347b2fa97, type: 3}
  - m_RefCount: 1
    m_Data: {fileID: 21300072, guid: a3d2085406be55a479d86f5347b2fa97, type: 3}
  - m_RefCount: 1
    m_Data: {fileID: 21300074, guid: a3d2085406be55a479d86f5347b2fa97, type: 3}
  - m_RefCount: 1
    m_Data: {fileID: 21300076, guid: a3d2085406be55a479d86f5347b2fa97, type: 3}
  - m_RefCount: 1
    m_Data: {fileID: 21300078, guid: a3d2085406be55a479d86f5347b2fa97, type: 3}
  - m_RefCount: 1
    m_Data: {fileID: 21300080, guid: a3d2085406be55a479d86f5347b2fa97, type: 3}
  - m_RefCount: 1
    m_Data: {fileID: 21300082, guid: a3d2085406be55a479d86f5347b2fa97, type: 3}
  - m_RefCount: 1
    m_Data: {fileID: 21300084, guid: a3d2085406be55a479d86f5347b2fa97, type: 3}
  - m_RefCount: 1
    m_Data: {fileID: 21300086, guid: a3d2085406be55a479d86f5347b2fa97, type: 3}
  - m_RefCount: 1
    m_Data: {fileID: 21300088, guid: a3d2085406be55a479d86f5347b2fa97, type: 3}
  - m_RefCount: 1
    m_Data: {fileID: 21300090, guid: a3d2085406be55a479d86f5347b2fa97, type: 3}
  - m_RefCount: 1
    m_Data: {fileID: 21300092, guid: a3d2085406be55a479d86f5347b2fa97, type: 3}
  - m_RefCount: 1
    m_Data: {fileID: 21300094, guid: a3d2085406be55a479d86f5347b2fa97, type: 3}
  - m_RefCount: 1
    m_Data: {fileID: 21300096, guid: a3d2085406be55a479d86f5347b2fa97, type: 3}
  - m_RefCount: 1
    m_Data: {fileID: 21300098, guid: a3d2085406be55a479d86f5347b2fa97, type: 3}
  - m_RefCount: 1
    m_Data: {fileID: 21300100, guid: a3d2085406be55a479d86f5347b2fa97, type: 3}
  - m_RefCount: 1
    m_Data: {fileID: 21300102, guid: a3d2085406be55a479d86f5347b2fa97, type: 3}
  - m_RefCount: 1
    m_Data: {fileID: 21300104, guid: a3d2085406be55a479d86f5347b2fa97, type: 3}
  - m_RefCount: 1
    m_Data: {fileID: 21300106, guid: a3d2085406be55a479d86f5347b2fa97, type: 3}
  - m_RefCount: 1
    m_Data: {fileID: 21300108, guid: a3d2085406be55a479d86f5347b2fa97, type: 3}
  - m_RefCount: 1
    m_Data: {fileID: 21300110, guid: a3d2085406be55a479d86f5347b2fa97, type: 3}
  - m_RefCount: 1
    m_Data: {fileID: 21300112, guid: a3d2085406be55a479d86f5347b2fa97, type: 3}
  - m_RefCount: 1
    m_Data: {fileID: 21300114, guid: a3d2085406be55a479d86f5347b2fa97, type: 3}
  - m_RefCount: 1
    m_Data: {fileID: 21300116, guid: a3d2085406be55a479d86f5347b2fa97, type: 3}
  - m_RefCount: 1
    m_Data: {fileID: 21300118, guid: a3d2085406be55a479d86f5347b2fa97, type: 3}
  - m_RefCount: 1
    m_Data: {fileID: 21300120, guid: a3d2085406be55a479d86f5347b2fa97, type: 3}
  - m_RefCount: 1
    m_Data: {fileID: 21300122, guid: a3d2085406be55a479d86f5347b2fa97, type: 3}
  - m_RefCount: 1
    m_Data: {fileID: 21300124, guid: a3d2085406be55a479d86f5347b2fa97, type: 3}
  - m_RefCount: 1
    m_Data: {fileID: 21300126, guid: a3d2085406be55a479d86f5347b2fa97, type: 3}
  - m_RefCount: 1
    m_Data: {fileID: 21300128, guid: a3d2085406be55a479d86f5347b2fa97, type: 3}
  - m_RefCount: 1
    m_Data: {fileID: 21300130, guid: a3d2085406be55a479d86f5347b2fa97, type: 3}
  - m_RefCount: 1
    m_Data: {fileID: 21300132, guid: a3d2085406be55a479d86f5347b2fa97, type: 3}
  - m_RefCount: 1
    m_Data: {fileID: 21300134, guid: a3d2085406be55a479d86f5347b2fa97, type: 3}
  - m_RefCount: 1
    m_Data: {fileID: 21300136, guid: a3d2085406be55a479d86f5347b2fa97, type: 3}
  - m_RefCount: 1
    m_Data: {fileID: 21300138, guid: a3d2085406be55a479d86f5347b2fa97, type: 3}
  - m_RefCount: 1
    m_Data: {fileID: 21300140, guid: a3d2085406be55a479d86f5347b2fa97, type: 3}
  - m_RefCount: 1
    m_Data: {fileID: 21300142, guid: a3d2085406be55a479d86f5347b2fa97, type: 3}
  - m_RefCount: 1
    m_Data: {fileID: 21300144, guid: a3d2085406be55a479d86f5347b2fa97, type: 3}
  - m_RefCount: 1
    m_Data: {fileID: 21300146, guid: a3d2085406be55a479d86f5347b2fa97, type: 3}
  - m_RefCount: 1
    m_Data: {fileID: 21300148, guid: a3d2085406be55a479d86f5347b2fa97, type: 3}
  - m_RefCount: 1
    m_Data: {fileID: 21300150, guid: a3d2085406be55a479d86f5347b2fa97, type: 3}
  - m_RefCount: 1
    m_Data: {fileID: 21300152, guid: a3d2085406be55a479d86f5347b2fa97, type: 3}
  - m_RefCount: 1
    m_Data: {fileID: 21300154, guid: a3d2085406be55a479d86f5347b2fa97, type: 3}
  - m_RefCount: 1
    m_Data: {fileID: 21300156, guid: a3d2085406be55a479d86f5347b2fa97, type: 3}
  - m_RefCount: 1
    m_Data: {fileID: 21300158, guid: a3d2085406be55a479d86f5347b2fa97, type: 3}
  - m_RefCount: 1
    m_Data: {fileID: 21300160, guid: a3d2085406be55a479d86f5347b2fa97, type: 3}
  - m_RefCount: 1
    m_Data: {fileID: 21300162, guid: a3d2085406be55a479d86f5347b2fa97, type: 3}
  - m_RefCount: 1
    m_Data: {fileID: 21300164, guid: a3d2085406be55a479d86f5347b2fa97, type: 3}
  - m_RefCount: 1
    m_Data: {fileID: 21300166, guid: a3d2085406be55a479d86f5347b2fa97, type: 3}
  - m_RefCount: 1
    m_Data: {fileID: 21300168, guid: a3d2085406be55a479d86f5347b2fa97, type: 3}
  - m_RefCount: 1
    m_Data: {fileID: 21300170, guid: a3d2085406be55a479d86f5347b2fa97, type: 3}
  - m_RefCount: 1
    m_Data: {fileID: 21300172, guid: a3d2085406be55a479d86f5347b2fa97, type: 3}
  - m_RefCount: 1
    m_Data: {fileID: 21300174, guid: a3d2085406be55a479d86f5347b2fa97, type: 3}
  - m_RefCount: 1
    m_Data: {fileID: 21300176, guid: a3d2085406be55a479d86f5347b2fa97, type: 3}
  - m_RefCount: 1
    m_Data: {fileID: 21300178, guid: a3d2085406be55a479d86f5347b2fa97, type: 3}
  - m_RefCount: 1
    m_Data: {fileID: 21300180, guid: a3d2085406be55a479d86f5347b2fa97, type: 3}
  - m_RefCount: 1
    m_Data: {fileID: 21300182, guid: a3d2085406be55a479d86f5347b2fa97, type: 3}
  - m_RefCount: 1
    m_Data: {fileID: 21300184, guid: a3d2085406be55a479d86f5347b2fa97, type: 3}
  - m_RefCount: 1
    m_Data: {fileID: 21300186, guid: a3d2085406be55a479d86f5347b2fa97, type: 3}
  - m_RefCount: 1
    m_Data: {fileID: 21300188, guid: a3d2085406be55a479d86f5347b2fa97, type: 3}
  - m_RefCount: 1
    m_Data: {fileID: 21300190, guid: a3d2085406be55a479d86f5347b2fa97, type: 3}
  - m_RefCount: 1
    m_Data: {fileID: 21300192, guid: a3d2085406be55a479d86f5347b2fa97, type: 3}
  - m_RefCount: 1
    m_Data: {fileID: 21300194, guid: a3d2085406be55a479d86f5347b2fa97, type: 3}
  - m_RefCount: 1
    m_Data: {fileID: 21300196, guid: a3d2085406be55a479d86f5347b2fa97, type: 3}
  - m_RefCount: 1
    m_Data: {fileID: 21300198, guid: a3d2085406be55a479d86f5347b2fa97, type: 3}
  - m_RefCount: 1
    m_Data: {fileID: 21300200, guid: a3d2085406be55a479d86f5347b2fa97, type: 3}
  - m_RefCount: 1
    m_Data: {fileID: 21300202, guid: a3d2085406be55a479d86f5347b2fa97, type: 3}
  - m_RefCount: 1
    m_Data: {fileID: 21300204, guid: a3d2085406be55a479d86f5347b2fa97, type: 3}
  - m_RefCount: 1
    m_Data: {fileID: 21300206, guid: a3d2085406be55a479d86f5347b2fa97, type: 3}
  - m_RefCount: 1
    m_Data: {fileID: 21300208, guid: a3d2085406be55a479d86f5347b2fa97, type: 3}
  - m_RefCount: 1
    m_Data: {fileID: 21300210, guid: a3d2085406be55a479d86f5347b2fa97, type: 3}
  - m_RefCount: 1
    m_Data: {fileID: 21300212, guid: a3d2085406be55a479d86f5347b2fa97, type: 3}
  - m_RefCount: 1
    m_Data: {fileID: 21300214, guid: a3d2085406be55a479d86f5347b2fa97, type: 3}
  - m_RefCount: 1
    m_Data: {fileID: 21300216, guid: a3d2085406be55a479d86f5347b2fa97, type: 3}
  - m_RefCount: 1
    m_Data: {fileID: 21300218, guid: a3d2085406be55a479d86f5347b2fa97, type: 3}
  - m_RefCount: 1
    m_Data: {fileID: 21300220, guid: a3d2085406be55a479d86f5347b2fa97, type: 3}
  - m_RefCount: 1
    m_Data: {fileID: 21300222, guid: a3d2085406be55a479d86f5347b2fa97, type: 3}
  - m_RefCount: 1
    m_Data: {fileID: 21300224, guid: a3d2085406be55a479d86f5347b2fa97, type: 3}
  m_TileMatrixArray:
  - m_RefCount: 114
    m_Data:
      e00: 1
      e01: 0
      e02: 0
      e03: 0
      e10: 0
      e11: 1
      e12: 0
      e13: 0
      e20: 0
      e21: 0
      e22: 1
      e23: 0
      e30: 0
      e31: 0
      e32: 0
      e33: 1
  m_TileColorArray:
  - m_RefCount: 114
    m_Data: {r: 1, g: 1, b: 1, a: 1}
  m_AnimationFrameRate: 1
  m_Color: {r: 1, g: 1, b: 1, a: 1}
  m_Origin: {x: -2, y: -7, z: 0}
  m_Size: {x: 11, y: 11, z: 1}
  m_TileAnchor: {x: 0.5, y: 0.5, z: 0}
  m_TileOrientation: 0
  m_TileOrientationMatrix:
    e00: 1
    e01: 0
    e02: 0
    e03: 0
    e10: 0
    e11: 1
    e12: 0
    e13: 0
    e20: 0
    e21: 0
    e22: 1
    e23: 0
    e30: 0
    e31: 0
    e32: 0
    e33: 1
  m_TileRefreshArray:
  - serializedVersion: 1
    m_DirtyIndex: 2
  - serializedVersion: 1
    m_DirtyIndex: 1
  - serializedVersion: 1
    m_DirtyIndex: 1
  - serializedVersion: 1
    m_DirtyIndex: 1
  - serializedVersion: 1
    m_DirtyIndex: 1
  - serializedVersion: 1
    m_DirtyIndex: 1
  - serializedVersion: 1
    m_DirtyIndex: 1
  - serializedVersion: 1
    m_DirtyIndex: 1
  - serializedVersion: 1
    m_DirtyIndex: 1
  - serializedVersion: 1
    m_DirtyIndex: 1
  - serializedVersion: 1
    m_DirtyIndex: 1
  - serializedVersion: 1
    m_DirtyIndex: 1
  - serializedVersion: 1
    m_DirtyIndex: 1
  - serializedVersion: 1
    m_DirtyIndex: 1
  - serializedVersion: 1
    m_DirtyIndex: 1
  - serializedVersion: 1
    m_DirtyIndex: 1
  - serializedVersion: 1
    m_DirtyIndex: 1
  - serializedVersion: 1
    m_DirtyIndex: 1
  - serializedVersion: 1
    m_DirtyIndex: 1
  - serializedVersion: 1
    m_DirtyIndex: 1
  - serializedVersion: 1
    m_DirtyIndex: 1
  - serializedVersion: 1
    m_DirtyIndex: 1
  - serializedVersion: 1
    m_DirtyIndex: 1
  - serializedVersion: 1
    m_DirtyIndex: 1
  - serializedVersion: 1
    m_DirtyIndex: 1
  - serializedVersion: 1
    m_DirtyIndex: 1
  - serializedVersion: 1
    m_DirtyIndex: 1
  - serializedVersion: 1
    m_DirtyIndex: 1
  - serializedVersion: 1
    m_DirtyIndex: 1
  - serializedVersion: 1
    m_DirtyIndex: 1
  - serializedVersion: 1
    m_DirtyIndex: 1
  - serializedVersion: 1
    m_DirtyIndex: 1
  - serializedVersion: 1
    m_DirtyIndex: 1
  - serializedVersion: 1
    m_DirtyIndex: 1
  - serializedVersion: 1
    m_DirtyIndex: 1
  - serializedVersion: 1
    m_DirtyIndex: 1
  - serializedVersion: 1
    m_DirtyIndex: 1
  - serializedVersion: 1
    m_DirtyIndex: 1
  - serializedVersion: 1
    m_DirtyIndex: 1
  - serializedVersion: 1
    m_DirtyIndex: 1
  - serializedVersion: 1
    m_DirtyIndex: 1
  - serializedVersion: 1
    m_DirtyIndex: 1
  - serializedVersion: 1
    m_DirtyIndex: 1
  - serializedVersion: 1
    m_DirtyIndex: 1
  - serializedVersion: 1
    m_DirtyIndex: 1
  - serializedVersion: 1
    m_DirtyIndex: 1
  - serializedVersion: 1
    m_DirtyIndex: 1
  - serializedVersion: 1
    m_DirtyIndex: 1
  - serializedVersion: 1
    m_DirtyIndex: 1
  - serializedVersion: 1
    m_DirtyIndex: 1
  - serializedVersion: 1
    m_DirtyIndex: 1
  - serializedVersion: 1
    m_DirtyIndex: 1
  - serializedVersion: 1
    m_DirtyIndex: 1
  - serializedVersion: 1
    m_DirtyIndex: 1
  - serializedVersion: 1
    m_DirtyIndex: 1
  - serializedVersion: 1
    m_DirtyIndex: 1
  - serializedVersion: 1
    m_DirtyIndex: 1
  - serializedVersion: 1
    m_DirtyIndex: 1
  - serializedVersion: 1
    m_DirtyIndex: 1
  - serializedVersion: 1
    m_DirtyIndex: 1
  - serializedVersion: 1
    m_DirtyIndex: 1
  - serializedVersion: 1
    m_DirtyIndex: 1
  - serializedVersion: 1
    m_DirtyIndex: 1
  - serializedVersion: 1
    m_DirtyIndex: 1
  - serializedVersion: 1
    m_DirtyIndex: 1
  - serializedVersion: 1
    m_DirtyIndex: 1
  - serializedVersion: 1
    m_DirtyIndex: 1
  - serializedVersion: 1
    m_DirtyIndex: 1
  - serializedVersion: 1
    m_DirtyIndex: 1
  - serializedVersion: 1
    m_DirtyIndex: 1
  - serializedVersion: 1
    m_DirtyIndex: 1
  - serializedVersion: 1
    m_DirtyIndex: 1
  - serializedVersion: 1
    m_DirtyIndex: 1
  - serializedVersion: 1
    m_DirtyIndex: 1
  - serializedVersion: 1
    m_DirtyIndex: 1
  - serializedVersion: 1
    m_DirtyIndex: 1
  - serializedVersion: 1
    m_DirtyIndex: 1
  - serializedVersion: 1
    m_DirtyIndex: 1
  - serializedVersion: 1
    m_DirtyIndex: 1
  - serializedVersion: 1
    m_DirtyIndex: 1
  - serializedVersion: 1
    m_DirtyIndex: 1
  - serializedVersion: 1
    m_DirtyIndex: 1
  - serializedVersion: 1
    m_DirtyIndex: 1
  - serializedVersion: 1
    m_DirtyIndex: 1
  - serializedVersion: 1
    m_DirtyIndex: 1
  - serializedVersion: 1
    m_DirtyIndex: 1
  - serializedVersion: 1
    m_DirtyIndex: 1
  - serializedVersion: 1
    m_DirtyIndex: 1
  - serializedVersion: 1
    m_DirtyIndex: 1
  - serializedVersion: 1
    m_DirtyIndex: 1
  - serializedVersion: 1
    m_DirtyIndex: 1
  - serializedVersion: 1
    m_DirtyIndex: 1
  - serializedVersion: 1
    m_DirtyIndex: 1
  - serializedVersion: 1
    m_DirtyIndex: 1
  - serializedVersion: 1
    m_DirtyIndex: 1
  - serializedVersion: 1
    m_DirtyIndex: 1
  - serializedVersion: 1
    m_DirtyIndex: 1
  - serializedVersion: 1
    m_DirtyIndex: 1
  - serializedVersion: 1
    m_DirtyIndex: 1
  - serializedVersion: 1
    m_DirtyIndex: 1
  - serializedVersion: 1
    m_DirtyIndex: 1
  - serializedVersion: 1
    m_DirtyIndex: 1
  - serializedVersion: 1
    m_DirtyIndex: 1
  - serializedVersion: 1
    m_DirtyIndex: 1
  - serializedVersion: 1
    m_DirtyIndex: 1
  - serializedVersion: 1
    m_DirtyIndex: 1
  - serializedVersion: 1
    m_DirtyIndex: 1
  - serializedVersion: 1
    m_DirtyIndex: 1
  - serializedVersion: 1
    m_DirtyIndex: 1
  - serializedVersion: 1
    m_DirtyIndex: 1
  - serializedVersion: 1
    m_DirtyIndex: 1
  - serializedVersion: 1
    m_DirtyIndex: 1
  - serializedVersion: 1
    m_DirtyIndex: 1
  - serializedVersion: 1
    m_DirtyIndex: 71
